vivado1/MyCpu多/MultiCycleCPU/MultiCycleCPU.sim/sim_1/behav/xsim/SCCPU.vcd
$date
   Wed Jan 22 11:13:28 2025
$end
$version
  2019.2
$end
$timescale
  1ps
$end
$scope module multiCycleCPU_sim $end
$var reg 1 ! CLK $end
$var reg 1 " Reset $end
$var wire 32 # curPC [31:0] $end
$var wire 32 $ nextPC [31:0] $end
$var wire 5 % rs [4:0] $end
$var wire 5 & rt [4:0] $end
$var wire 32 ' Out1 [31:0] $end
$var wire 32 ( Out2 [31:0] $end
$var wire 32 ) Result [31:0] $end
$var wire 32 * DBData [31:0] $end
$scope module uut $end
$var wire 1 + CLK $end
$var wire 1 , Reset $end
$var wire 5 % rs [4:0] $end
$var wire 5 & rt [4:0] $end
$var wire 6 - OpCode [5:0] $end
$var wire 32 ' Out1 [31:0] $end
$var wire 32 ( Out2 [31:0] $end
$var wire 32 # curPC [31:0] $end
$var wire 32 $ nextPC [31:0] $end
$var wire 32 ) Result [31:0] $end
$var wire 32 * DBData [31:0] $end
$var wire 32 . Instruction [31:0] $end
$var wire 3 / ALUOp [2:0] $end
$var wire 6 0 func [5:0] $end
$var wire 3 1 state [2:0] $end
$var wire 32 2 Extout [31:0] $end
$var wire 32 3 DMOut [31:0] $end
$var wire 16 4 Immediate [15:0] $end
$var wire 5 5 rd [4:0] $end
$var wire 5 6 sa [4:0] $end
$var wire 32 7 JumpPC [31:0] $end
$var wire 1 8 zero $end
$var wire 1 9 sign $end
$var wire 1 : PCWre $end
$var wire 1 ; ALUSrcA $end
$var wire 1 < ALUSrcB $end
$var wire 1 = DBDataSrc $end
$var wire 1 > RegWre $end
$var wire 1 ? IRWre $end
$var wire 1 @ WrRegDSrc $end
$var wire 1 A InsMemRW $end
$var wire 1 B RD $end
$var wire 1 C WR $end
$var wire 1 D ExtSel $end
$var wire 2 E RegDst [1:0] $end
$var wire 2 F PCSrc [1:0] $end
$var wire 4 G PC4 [3:0] $end
$var wire 32 H PC_add_4 [31:0] $end
$var wire 32 I drPC_add_4 [31:0] $end
$var wire 32 J drOut1 [31:0] $end
$var wire 32 K drOut2 [31:0] $end
$var wire 32 L DAddr [31:0] $end
$var wire 32 M DB [31:0] $end
$var wire 32 N drDB [31:0] $end
$scope module ST $end
$var wire 6 - opCode [5:0] $end
$var wire 6 0 func [5:0] $end
$var wire 1 , Reset $end
$var wire 1 + clk $end
$var reg 3 O new_state [2:0] $end
$var parameter 3 P IF [2:0] $end
$var parameter 3 Q ID [2:0] $end
$var parameter 3 R EXE1 [2:0] $end
$var parameter 3 S EXE2 [2:0] $end
$var parameter 3 T EXE3 [2:0] $end
$var parameter 3 U WB1 [2:0] $end
$var parameter 3 V WB2 [2:0] $end
$var parameter 3 W MEM [2:0] $end
$upscope $end
$scope module CU $end
$var wire 3 1 state [2:0] $end
$var wire 6 - OpCode [5:0] $end
$var wire 6 0 func [5:0] $end
$var wire 1 8 zero $end
$var wire 1 9 sign $end
$var reg 1 X IRWre $end
$var reg 1 Y PCWre $end
$var reg 1 Z ALUSrcA $end
$var reg 1 [ ALUSrcB $end
$var reg 1 \ DBDataSrc $end
$var reg 1 ] WrRegDSrc $end
$var reg 1 ^ InsMemRW $end
$var reg 1 _ RD $end
$var reg 1 ` WR $end
$var reg 1 a ExtSel $end
$var reg 2 b RegDst [1:0] $end
$var reg 2 c PCSrc [1:0] $end
$var reg 3 d ALUOp [2:0] $end
$var reg 1 e RegWre $end
$var parameter 3 f IF [2:0] $end
$var parameter 3 g ID [2:0] $end
$var parameter 3 h EXE1 [2:0] $end
$var parameter 3 i EXE2 [2:0] $end
$var parameter 3 j EXE3 [2:0] $end
$var parameter 3 k WB1 [2:0] $end
$var parameter 3 l WB2 [2:0] $end
$var parameter 3 m MEM [2:0] $end
$upscope $end
$scope module pc $end
$var wire 1 + CLK $end
$var wire 1 , Reset $end
$var wire 1 : PCWre $end
$var wire 2 F PCSrc [1:0] $end
$var wire 16 4 Immediate [15:0] $end
$var wire 32 ' dataFromRs [31:0] $end
$var wire 32 7 JumpPC [31:0] $end
$var reg 32 n Address [31:0] $end
$var reg 32 o nextPC [31:0] $end
$var wire 32 H PC_add_4 [31:0] $end
$var wire 4 G PC4 [3:0] $end
$upscope $end
$scope module IM $end
$var wire 32 # IAddr [31:0] $end
$var wire 1 A RW $end
$var reg 32 p IDataOut [31:0] $end
$upscope $end
$scope module ir $end
$var wire 1 + clk $end
$var wire 1 ? IRWre $end
$var wire 32 . instruction [31:0] $end
$var wire 1 q PC4 $end
$var reg 6 r OpCode [5:0] $end
$var reg 6 s func [5:0] $end
$var reg 5 t rs [4:0] $end
$var reg 5 u rt [4:0] $end
$var reg 5 v rd [4:0] $end
$var reg 16 w Immediate [15:0] $end
$var reg 5 x sa [4:0] $end
$var reg 32 y JumpPC [31:0] $end
$upscope $end
$scope module RF $end
$var wire 1 + CLK $end
$var wire 1 @ WrRegDSrc $end
$var wire 32 I PC_add_4 [31:0] $end
$var wire 2 E RegDst [1:0] $end
$var wire 1 > RegWre $end
$var wire 5 % rs [4:0] $end
$var wire 5 & rt [4:0] $end
$var wire 5 5 rd [4:0] $end
$var wire 32 N drDB [31:0] $end
$var reg 32 z Data1 [31:0] $end
$var reg 32 { Data2 [31:0] $end
$var wire 32 * writeData [31:0] $end
$var reg 5 | writeReg [4:0] $end
$var integer 32 } i $end
$upscope $end
$scope module pcadd $end
$var wire 1 + clk $end
$var wire 32 H in [31:0] $end
$var reg 32 ~ out [31:0] $end
$upscope $end
$scope module Adr $end
$var wire 1 + clk $end
$var wire 32 ' in [31:0] $end
$var reg 32 !! out [31:0] $end
$upscope $end
$scope module Bdr $end
$var wire 1 + clk $end
$var wire 32 ( in [31:0] $end
$var reg 32 "! out [31:0] $end
$upscope $end
$scope module alu $end
$var wire 32 J ReadData1 [31:0] $end
$var wire 32 K ReadData2 [31:0] $end
$var wire 32 2 Ext [31:0] $end
$var wire 5 6 Sa [4:0] $end
$var wire 3 / ALUop [2:0] $end
$var wire 1 ; ALUSrcA $end
$var wire 1 < ALUSrcB $end
$var wire 1 8 zero $end
$var reg 32 #! Result [31:0] $end
$var wire 1 9 sign $end
$var wire 32 $! InA [31:0] $end
$var wire 32 %! InB [31:0] $end
$upscope $end
$scope module aluOutDr $end
$var wire 1 + clk $end
$var wire 32 ) in [31:0] $end
$var reg 32 &! out [31:0] $end
$upscope $end
$scope module DM $end
$var wire 32 L DAddr [31:0] $end
$var wire 32 K DataIn [31:0] $end
$var wire 1 B RD $end
$var wire 1 C WR $end
$var reg 32 '! DataOut [31:0] $end
$var wire 32 (! address [31:0] $end
$upscope $end
$scope module db $end
$var wire 32 ) ALUResult [31:0] $end
$var wire 32 3 DMOut [31:0] $end
$var wire 1 = DBDataSrc $end
$var wire 32 M DB [31:0] $end
$upscope $end
$scope module dbdr $end
$var wire 1 + clk $end
$var wire 32 M in [31:0] $end
$var reg 32 )! out [31:0] $end
$upscope $end
$scope module SZE $end
$var wire 16 4 Immediate [15:0] $end
$var wire 1 D ExtSel $end
$var wire 32 2 Out [31:0] $end
$upscope $end
$upscope $end
$upscope $end
$enddefinitions $end
#0
$dumpvars
0!
bx !!
0"
bx "!
b0 #
bx #!
b100 $
bx $!
bx %
bx %!
bx &
bx &!
bx '
bx '!
bx (
bx00 (!
bx )
bx )!
bx *
0+
0,
bx -
b100100000000010000000000001000 .
bx /
bx 0
b0 1
bx 2
bx 3
bx 4
bx 5
bx 6
bx 7
x8
x9
0:
x;
x<
x=
0>
0?
x@
1A
0B
0C
xD
bx E
bx F
b0 G
b100 H
bx I
bx J
bx K
bx L
bx M
bx N
b0 O
b0 P
b1 Q
b110 R
b101 S
b10 T
b111 U
b100 V
b11 W
0X
0Y
xZ
x[
x\
x]
1^
0_
0`
xa
bx b
bx c
bx d
0e
b0 f
b1 g
b110 h
b101 i
b10 j
b111 k
b100 l
b11 m
b0 n
b100 o
b100100000000010000000000001000 p
0q
bx r
bx s
bx t
bx u
bx v
bx w
bx x
bx y
bx z
bx {
bx |
b100000 }
bx ~
$end
#50000
1!
bx !!
bx "!
bx &!
bx )!
1+
b100 I
b0 n
b100 ~
#100000
1"
1,
#150000
0!
0+
b1 1
1?
b1 O
1X
0Y
x\
x]
1^
0_
0`
xa
bx b
bx c
0e
#200000
1!
bx !!
bx "!
bx $!
b0 %
bx %!
b1 &
bx &!
b0 '
b0 (
bx )!
1+
b1001 -
b1000 2
b1000 4
b0 5
b0 6
b1000000000000100000 7
b100 o
b1001 r
bx s
b0 t
b1 u
b0 v
b1000 w
b0 x
b1000000000000100000 y
b0 z
b0 {
b0 |
b100 ~
#250000
0!
bx #!
bx $!
b1000 %!
0+
b0 /
b110 1
b1000 2
0;
1<
0=
0?
1@
1D
b1 E
b0 F
b110 O
0X
0Y
0Z
1[
0\
1]
1^
0_
0`
1a
b1 b
b0 c
b0 d
0e
b100 o
b1 |
#300000
1!
b0 !!
b0 "!
b1000 #!
b0 $!
b1000 %!
bx &!
b1000 )
bx )!
1+
08
09
b0 J
b0 K
b1000 M
b100 ~
#350000
0!
0+
b111 1
1>
b111 O
0X
0Y
0\
1]
1^
0_
0`
1a
b1 b
b0 c
1e
#400000
1!
b0 !!
b0 "!
b1000 &!
b100000 (!
b1000 )!
b1000 *
1+
b1000 L
b1000 N
b100 ~
#450000
0!
b1000 (
0+
b0 1
1:
0>
b0 O
0X
1Y
0\
1]
1^
0_
0`
1a
b1 b
b0 c
0e
b0 z
b1000 {
#500000
1!
b0 !!
b1000 "!
b100 #
b1000 $
b1000 %!
b1000 &!
b1000 )!
1+
b110100000000100000000000000010 .
b1000 H
b1000 K
b100 n
b1000 o
b110100000000100000000000000010 p
b100 ~
#550000
0!
0+
b1 1
0:
1?
b1 O
1X
0Y
0\
1]
1^
0_
0`
1a
b1 b
b0 c
0e
#600000
1!
b0 !!
b1000 "!
b10 #!
b10 %!
b10 &
b1000 &!
b0 (
b10 )
b1000 )!
1+
b1101 -
b10 2
b10 4
b10000000000000001000 7
b1000 I
b10 M
b1000 o
b1101 r
bx s
b0 t
b10 u
b0 v
b10 w
b0 x
b10000000000000001000 y
b0 z
b0 {
b10 |
b1000 ~
#650000
0!
b10 #!
0+
b11 /
b110 1
b10 2
0?
0D
b110 O
0X
0Y
0Z
1[
0\
1]
1^
0_
0`
0a
b1 b
b0 c
b11 d
0e
#700000
1!
b0 !!
b0 "!
b10 %!
b10 &!
b1000 (!
b10 )!
b10 *
1+
b0 K
b10 L
b10 N
b1000 ~
#750000
0!
0+
b111 1
1>
b111 O
0X
0Y
0\
1]
1^
0_
0`
0a
b1 b
b0 c
1e
#800000
1!
b0 !!
b0 "!
b10 &!
b10 )!
1+
b1000 ~
#850000
0!
b10 (
0+
b0 1
1:
0>
b0 O
0X
1Y
0\
1]
1^
0_
0`
0a
b1 b
b0 c
0e
b0 z
b10 {
#900000
1!
b0 !!
b10 "!
b1000 #
b1100 $
b10 %!
b10 &!
b10 )!
1+
b111000010000110000000000001000 .
b1100 H
b10 K
b1000 n
b1100 o
b111000010000110000000000001000 p
b1000 ~
#950000
0!
0+
b1 1
0:
1?
b1 O
1X
0Y
0\
1]
1^
0_
0`
0a
b1 b
b0 c
0e
#1000000
1!
b0 !!
b10 "!
b1000 #!
b10 %
b1000 %!
b11 &
b10 &!
b10 '
b0 (
b1000 )
b10 )!
1+
b1110 -
b1000 2
b1000 4
b1000011000000000000100000 7
b1100 I
b1000 M
b1100 o
b1110 r
bx s
b10 t
b11 u
b0 v
b1000 w
b0 x
b1000011000000000000100000 y
b10 z
b0 {
b11 |
b1100 ~
#1050000
0!
b1000 #!
0+
b111 /
b110 1
0?
b110 O
0X
0Y
0Z
1[
0\
1]
1^
0_
0`
0a
b1 b
b0 c
b111 d
0e
#1100000
1!
b10 !!
b0 "!
b1010 #!
b10 $!
b1000 %!
b1000 &!
b100000 (!
b1010 )
b1000 )!
b1000 *
1+
b10 J
b0 K
b1000 L
b1010 M
b1000 N
b1100 ~
#1150000
0!
0+
b111 1
1>
b111 O
0X
0Y
0\
1]
1^
0_
0`
0a
b1 b
b0 c
1e
#1200000
1!
b10 !!
b0 "!
b1010 &!
b101000 (!
b1010 )!
b1010 *
1+
b1010 L
b1010 N
b1100 ~
#1250000
0!
b1010 (
0+
b0 1
1:
0>
b0 O
0X
1Y
0\
1]
1^
0_
0`
0a
b1 b
b0 c
0e
b10 z
b1010 {
#1300000
1!
b10 !!
b1010 "!
b1100 #
b10000 $
b1000 %!
b1010 &!
b1010 )!
1+
b11000010010000000100010 .
b10000 H
b1010 K
b1100 n
b10000 o
b11000010010000000100010 p
b1100 ~
#1350000
0!
0+
b1 1
0:
1?
b1 O
1X
0Y
0\
1]
1^
0_
0`
0a
b1 b
b0 c
0e
#1400000
1!
b10 !!
b1010 "!
b10000000100000 #!
b11 %
b10000000100010 %!
b1 &
b1010 &!
b1010 '
b1000 (
b10000000100000 )
b1010 )!
1+
b0 -
b100010 0
b10000000100010 2
b10000000100010 4
b100 5
b1100001001000000010001000 7
b10000 I
b10000000100000 M
b10000 o
b0 r
b100010 s
b11 t
b1 u
b100 v
b10000000100010 w
b0 x
b1100001001000000010001000 y
b1010 z
b1000 {
b1 |
b10000 ~
#1450000
0!
b11111111111111111111111111111000 #!
b1010 %!
b11111111111111111111111111111000 )
0+
b1 /
b110 1
b10000000100010 2
19
0<
0?
1D
b10 E
b11111111111111111111111111111000 M
b110 O
0X
0Y
0Z
0[
0\
1]
1^
0_
0`
1a
b10 b
b0 c
b1 d
0e
b100 |
#1500000
1!
b1010 !!
b1000 "!
b10 #!
b1010 $!
b1000 %!
b11111111111111111111111111111000 &!
b11111111111111111111111111100000 (!
b10 )
b11111111111111111111111111111000 )!
b11111111111111111111111111111000 *
1+
09
b1010 J
b1000 K
b11111111111111111111111111111000 L
b10 M
b11111111111111111111111111111000 N
b10000 ~
#1550000
0!
0+
b111 1
1>
b111 O
0X
0Y
0\
1]
1^
0_
0`
1a
b10 b
b0 c
1e
#1600000
1!
b1010 !!
b1000 "!
b10 &!
b1000 (!
b10 )!
b10 *
1+
b10 L
b10 N
b10000 ~
#1650000
0!
0+
b0 1
1:
0>
b0 O
0X
1Y
0\
1]
1^
0_
0`
1a
b10 b
b0 c
0e
b1010 z
b1000 {
#1700000
1!
b1010 !!
b1000 "!
b10000 #
b10100 $
b10 &!
b10 )!
1+
b100000100010100000100100 .
b10100 H
b10000 n
b10100 o
b100000100010100000100100 p
b10000 ~
#1750000
0!
0+
b1 1
0:
1?
b1 O
1X
0Y
0\
1]
1^
0_
0`
1a
b10 b
b0 c
0e
#1800000
1!
b1010 !!
b1000 "!
b100 %
b1000 %!
b10 &
b10 &!
b10 '
b10 (
b10 )!
1+
b100100 0
b10100000100100 2
b10100000100100 4
b101 5
b10000010001010000010010000 7
b10100 I
b10100 o
b0 r
b100100 s
b100 t
b10 u
b101 v
b10100000100100 w
b0 x
b10000010001010000010010000 y
b10 z
b10 {
b101 |
b10100 ~
#1850000
0!
b1000 #!
b1000 )
0+
b100 /
b110 1
0?
b1000 M
b110 O
0X
0Y
0Z
0[
0\
1]
1^
0_
0`
1a
b10 b
b0 c
b100 d
0e
#1900000
1!
b10 !!
b10 "!
b10 #!
b10 $!
b10 %!
b1000 &!
b100000 (!
b10 )
b1000 )!
b1000 *
1+
b10 J
b10 K
b1000 L
b10 M
b1000 N
b10100 ~
#1950000
0!
0+
b111 1
1>
b111 O
0X
0Y
0\
1]
1^
0_
0`
1a
b10 b
b0 c
1e
#2000000
1!
b10 !!
b10 "!
b10 &!
b1000 (!
b10 )!
b10 *
1+
b10 L
b10 N
b10100 ~
#2050000
0!
0+
b0 1
1:
0>
b0 O
0X
1Y
0\
1]
1^
0_
0`
1a
b10 b
b0 c
0e
b10 z
b10 {
#2100000
1!
b10 !!
b10 "!
b10100 #
b11000 $
b10 &!
b10 )!
1+
b1010010100010000000 .
b11000 H
b10100 n
b11000 o
b1010010100010000000 p
b10100 ~
#2150000
0!
0+
b1 1
0:
1?
b1 O
1X
0Y
0\
1]
1^
0_
0`
1a
b10 b
b0 c
0e
#2200000
1!
b10 !!
b10 "!
b10 $!
b0 %
b10 %!
b101 &
b10 &!
b0 '
b10 )!
1+
b0 0
b10100010000000 2
b10100010000000 4
b10 6
b101001010001000000000 7
b11000 I
b11000 o
b0 r
b0 s
b0 t
b101 u
b101 v
b10100010000000 w
b10 x
b101001010001000000000 y
b0 z
b10 {
b11000 ~
#2250000
0!
b1000 #!
b10 $!
b1000 )
0+
b10 /
b110 1
1;
0?
b1000 M
b110 O
0X
0Y
1Z
0[
0\
1]
1^
0_
0`
1a
b10 b
b0 c
b10 d
0e
#2300000
1!
b0 !!
b10 "!
b10 $!
b1000 &!
b100000 (!
b1000 )!
b1000 *
1+
b0 J
b1000 L
b1000 N
b11000 ~
#2350000
0!
0+
b111 1
1>
b111 O
0X
0Y
0\
1]
1^
0_
0`
1a
b10 b
b0 c
1e
#2400000
1!
b0 !!
b10 "!
b1000 &!
b1000 )!
1+
b11000 ~
#2450000
0!
b1000 (
0+
b0 1
1:
0>
b0 O
0X
1Y
0\
1]
1^
0_
0`
1a
b10 b
b0 c
0e
b0 z
b1000 {
#2500000
1!
b0 !!
b1000 "!
b11000 #
b100000 #!
b11100 $
b1000 %!
b1000 &!
b100000 )
b1000 )!
1+
b10000101000011111111111111110 .
b11100 H
b1000 K
b100000 M
b11000 n
b11100 o
b10000101000011111111111111110 p
b11000 ~
#2550000
0!
0+
b1 1
0:
1?
b1 O
1X
0Y
0\
1]
1^
0_
0`
1a
b10 b
b0 c
0e
#2600000
1!
b0 !!
b1000 "!
b0 #!
b11111 $!
b101 %
b1000 %!
b1 &
b100000 &!
b1000 '
b10000000 (!
b0 )
b100000 )!
b100000 *
1+
b100 -
bx 0
b11111111111111111111111111111110 2
b1111111111111110 4
b11111 5
b11111 6
b10100001111111111111111000 7
18
b11100 I
b100000 L
b0 M
b100000 N
b11100 o
b100 r
bx s
b101 t
b1 u
b11111 v
b1111111111111110 w
b11111 x
b10100001111111111111111000 y
b1000 z
b1000 {
b11111 |
b11100 ~
#2650000
0!
b11111111111111111111111111111000 #!
b10100 $
b0 $!
b11111111111111111111111111111000 )
0+
b1 /
b101 1
08
19
0;
0?
b1 E
b1 F
b11111111111111111111111111111000 M
b101 O
0X
0Y
0Z
0[
0\
1]
1^
0_
0`
1a
b1 b
b1 c
b1 d
0e
b10100 o
b1 |
#2700000
1!
b1000 !!
b1000 "!
b0 #!
b1000 $!
b11111111111111111111111111111000 &!
b11111111111111111111111111100000 (!
b0 )
b11111111111111111111111111111000 )!
b11111111111111111111111111111000 *
1+
18
09
b1000 J
b11111111111111111111111111111000 L
b0 M
b11111111111111111111111111111000 N
b11100 ~
#2750000
0!
0+
b0 1
1:
b0 O
0X
1Y
0\
1]
1^
0_
0`
1a
b1 b
b1 c
0e
#2800000
1!
b1000 !!
b1000 "!
b10100 #
b10000 $
b0 &!
b0 (!
b0 )!
b0 *
1+
b1010010100010000000 .
b11000 H
b0 L
b0 N
b10100 n
b10000 o
b1010010100010000000 p
b11100 ~
#2850000
0!
0+
b1 1
0:
1?
b1 O
1X
0Y
0\
1]
1^
0_
0`
1a
b1 b
b1 c
0e
#2900000
1!
b1000 !!
b1000 "!
b1010001000011000 $
b1000 $!
b0 %
b1000 %!
b101 &
b0 &!
b0 '
b0 )!
1+
b0 -
b0 0
b10100010000000 2
b10100010000000 4
b101 5
b10 6
b101001010001000000000 7
b11000 I
b1010001000011000 o
b0 r
b0 s
b0 t
b101 u
b101 v
b10100010000000 w
b10 x
b101001010001000000000 y
b0 z
b1000 {
b101 |
b11000 ~
#2950000
0!
b100000 #!
b11000 $
b10 $!
b100000 )
0+
b10 /
b110 1
08
1;
0?
b10 E
b0 F
b100000 M
b110 O
0X
0Y
1Z
0[
0\
1]
1^
0_
0`
1a
b10 b
b0 c
b10 d
0e
b11000 o
#3000000
1!
b0 !!
b1000 "!
b10 $!
b100000 &!
b10000000 (!
b100000 )!
b100000 *
1+
b0 J
b100000 L
b100000 N
b11000 ~
#3050000
0!
0+
b111 1
1>
b111 O
0X
0Y
0\
1]
1^
0_
0`
1a
b10 b
b0 c
1e
#3100000
1!
b0 !!
b1000 "!
b100000 &!
b100000 )!
1+
b11000 ~
#3150000
0!
b100000 (
0+
b0 1
1:
0>
b0 O
0X
1Y
0\
1]
1^
0_
0`
1a
b10 b
b0 c
0e
b0 z
b100000 {
#3200000
1!
b0 !!
b100000 "!
b11000 #
b10000000 #!
b11100 $
b100000 %!
b100000 &!
b10000000 )
b100000 )!
1+
b10000101000011111111111111110 .
b11100 H
b100000 K
b10000000 M
b11000 n
b11100 o
b10000101000011111111111111110 p
b11000 ~
#3250000
0!
0+
b1 1
0:
1?
b1 O
1X
0Y
0\
1]
1^
0_
0`
1a
b10 b
b0 c
0e
#3300000
1!
b0 !!
b100000 "!
b0 #!
b11111 $!
b101 %
b100000 %!
b1 &
b10000000 &!
b100000 '
b1000 (
b1000000000 (!
b0 )
b10000000 )!
b10000000 *
1+
b100 -
bx 0
b11111111111111111111111111111110 2
b1111111111111110 4
b11111 5
b11111 6
b10100001111111111111111000 7
18
b11100 I
b10000000 L
b0 M
b10000000 N
b11100 o
b100 r
bx s
b101 t
b1 u
b11111 v
b1111111111111110 w
b11111 x
b10100001111111111111111000 y
b100000 z
b1000 {
b11111 |
b11100 ~
#3350000
0!
b11111111111111111111111111100000 #!
b10100 $
b0 $!
b11111111111111111111111111100000 )
0+
b1 /
b101 1
08
19
0;
0?
b1 E
b1 F
b11111111111111111111111111100000 M
b101 O
0X
0Y
0Z
0[
0\
1]
1^
0_
0`
1a
b1 b
b1 c
b1 d
0e
b10100 o
b1 |
#3400000
1!
b100000 !!
b1000 "!
b11000 #!
b100000 $!
b1000 %!
b11111111111111111111111111100000 &!
b11111111111111111111111110000000 (!
b11000 )
b11111111111111111111111111100000 )!
b11111111111111111111111111100000 *
1+
09
b100000 J
b1000 K
b11111111111111111111111111100000 L
b11000 M
b11111111111111111111111111100000 N
b11100 ~
#3450000
0!
b11100 $
0+
b0 1
1:
b0 F
b0 O
0X
1Y
0\
1]
1^
0_
0`
1a
b1 b
b0 c
0e
b11100 o
#3500000
1!
b100000 !!
b1000 "!
b11100 #
b100000 $
b11000 &!
b1100000 (!
b11000 )!
b11000 *
1+
b1100000000000000000000010100 .
b100000 H
b11000 L
b11000 N
b11100 n
b100000 o
b1100000000000000000000010100 p
b11100 ~
#3550000
0!
0+
b1 1
0:
1?
b1 O
1X
0Y
0\
1]
1^
0_
0`
1a
b1 b
b0 c
0e
#3600000
1!
b100000 !!
b1000 "!
b100000 $!
b0 %
b1000 %!
b0 &
b11000 &!
b0 '
b0 (
b11000 )!
1+
b11 -
b10100 2
b10100 4
b0 5
b0 6
b1010000 7
b100000 I
b100000 o
b11 r
bx s
b0 t
b0 u
b0 v
b10100 w
b0 x
b1010000 y
b0 z
b0 {
b0 |
b100000 ~
#3650000
0!
b1010000 $
b100000 *
0+
b0 1
1:
1>
0?
0@
b0 E
b11 F
b0 O
0X
1Y
0\
0]
1^
0_
0`
1a
b0 b
b11 c
1e
b1010000 o
b11111 |
#3700000
1!
b0 !!
b0 "!
b1010000 #
b0 #!
b0 $!
b0 %!
b11000 &!
b0 )
b11000 )!
1+
b10101100001000100000000000000100 .
18
b1010100 H
b0 J
b0 K
b0 M
b1010000 n
b1010000 o
b10101100001000100000000000000100 p
b0 z
b0 {
b100000 ~
#3750000
0!
0+
b1 1
0:
0>
1?
b1 O
1X
0Y
0\
0]
1^
0_
0`
1a
b0 b
b11 c
0e
#3800000
1!
b0 !!
b0 "!
b100010000000000000010000 $
b1 %
b0 %!
b10 &
b0 &!
b1000 '
b10 (
b0 (!
b0 )!
b1010100 *
1+
b101011 -
b100 2
b100 4
b100010000000000000010000 7
b1010100 I
b0 L
b0 N
b100010000000000000010000 o
b101011 r
bx s
b1 t
b10 u
b0 v
b100 w
b0 x
b100010000000000000010000 y
b1000 z
b10 {
b1010100 ~
#3850000
0!
b100 #!
b1010100 $
b100 %!
b100 )
b0 *
0+
b0 /
b10 1
08
1<
0?
1@
b1 E
b0 F
b100 M
b10 O
0X
0Y
0Z
1[
0\
1]
1^
0_
0`
1a
b1 b
b0 c
b0 d
0e
b1010100 o
b10 |
#3900000
1!
b1000 !!
b10 "!
b1100 #!
b1000 $!
b100 %!
b100 &!
b10000 (!
b1100 )
b100 )!
b100 *
1+
b1000 J
b10 K
b100 L
b1100 M
b100 N
b1010100 ~
#3950000
0!
0+
b11 1
1C
b11 O
0X
0Y
0\
1]
1^
0_
1`
1a
b1 b
b0 c
0e
#4000000
1!
b1000 !!
b10 "!
b1100 &!
b110000 (!
b1100 )!
b1100 *
1+
b1100 L
b1100 N
b1010100 ~
#4050000
0!
0+
b0 1
1:
0C
b0 O
0X
1Y
0\
1]
1^
0_
0`
1a
b1 b
b0 c
0e
#4100000
1!
b1000 !!
b10 "!
b1010100 #
b1011000 $
b1100 &!
b1100 )!
1+
b10001100001011010000000000000100 .
b1011000 H
b1010100 n
b1011000 o
b10001100001011010000000000000100 p
b1010100 ~
#4150000
0!
0+
b1 1
0:
1?
b1 O
1X
0Y
0\
1]
1^
0_
0`
1a
b1 b
b0 c
0e
#4200000
1!
b1000 !!
b10 "!
b1101 &
b1100 &!
b0 (
b1100 )!
1+
b100011 -
b101101000000000000010000 7
b1011000 I
b1011000 o
b100011 r
bx s
b1 t
b1101 u
b0 v
b100 w
b0 x
b101101000000000000010000 y
b1000 z
b0 {
b1101 |
b1011000 ~
#4250000
0!
0+
b10 1
1=
0?
bx M
b10 O
0X
0Y
0Z
1[
1\
1]
1^
0_
0`
1a
b1 b
b0 c
b0 d
0e
#4300000
1!
b1000 !!
b0 "!
b100 %!
b1100 &!
bx )!
bx *
1+
b0 K
bx N
b1011000 ~
#4350000
0!
b10 '!
0+
b11 1
b10 3
1B
b10 M
b11 O
0X
0Y
1\
1]
1^
1_
0`
1a
b1 b
b0 c
0e
#4400000
1!
b1000 !!
b0 "!
b1100 &!
b10 )!
b10 *
1+
b10 N
b1011000 ~
#4450000
0!
0+
b100 1
1>
0B
b100 O
0X
0Y
1\
1]
1^
0_
0`
1a
b1 b
b0 c
1e
#4500000
1!
b1000 !!
b0 "!
b1100 &!
b10 )!
1+
b1011000 ~
#4550000
0!
b10 (
0+
b0 1
1:
0>
b0 O
0X
1Y
1\
1]
1^
0_
0`
1a
b1 b
b0 c
0e
b1000 z
b10 {
#4600000
1!
b1000 !!
b10 "!
b1011000 #
b1011100 $
b100 %!
b1100 &!
b10 )!
1+
b11111000000000000000001000 .
b1011100 H
b10 K
b1011000 n
b1011100 o
b11111000000000000000001000 p
b1011000 ~
#4650000
0!
0+
b1 1
0:
1?
b1 O
1X
0Y
1\
1]
1^
0_
0`
1a
b1 b
b0 c
0e
#4700000
1!
b1000 !!
b10 "!
b10000 #!
b11111 %
b1000 %!
b0 &
b1100 &!
b100000 '
b0 (
b10000 )
b10 )!
1+
b0 -
b1000 0
b1000 2
b1000 4
b1111100000000000000000100000 7
b1011100 I
b1011100 o
b0 r
b1000 s
b11111 t
b0 u
b0 v
b1000 w
b0 x
b1111100000000000000000100000 y
b100000 z
b0 {
b0 |
b1011100 ~
#4750000
0!
b100000 $
0+
b0 1
1:
0=
0?
b10 F
b10000 M
b0 O
0X
1Y
0\
1]
1^
0_
0`
1a
b1 b
b10 c
0e
b100000 o
#4800000
1!
b100000 !!
b0 "!
b100000 #
b101000 #!
b100000 $!
b1000 %!
b10000 &!
b1000000 (!
b101000 )
b10000 )!
b10000 *
1+
b1101000010100000000101010 .
b100100 H
b100000 J
b0 K
b10000 L
b101000 M
b10000 N
b100000 n
b100000 o
b1101000010100000000101010 p
b1011100 ~
#4850000
0!
0+
b1 1
0:
1?
b1 O
1X
0Y
0\
1]
1^
0_
0`
1a
b1 b
b10 c
0e
#4900000
1!
b100000 !!
b0 "!
b100000001001010 #!
b10 $
b1101 %
b100000000101010 %!
b1 &
b101000 &!
b10 '
b1000 (
b10100000 (!
b100000001001010 )
b101000 )!
b101000 *
1+
b101010 0
b100000000101010 2
b100000000101010 4
b1000 5
b110100001010000000010101000 7
b100100 I
b101000 L
b100000001001010 M
b101000 N
b10 o
b0 r
b101010 s
b1101 t
b1 u
b1000 v
b100000000101010 w
b0 x
b110100001010000000010101000 y
b10 z
b1000 {
b1 |
b100100 ~
#4950000
0!
b0 #!
b100100 $
b0 %!
b0 )
0+
b110 /
b110 1
18
0<
0?
b10 E
b0 F
b0 M
b110 O
0X
0Y
0Z
0[
0\
1]
1^
0_
0`
1a
b10 b
b0 c
b110 d
0e
b100100 o
b1000 |
#5000000
1!
b10 !!
b1000 "!
b1 #!
b10 $!
b1000 %!
b0 &!
b0 (!
b1 )
b0 )!
b0 *
1+
08
b10 J
b1000 K
b0 L
b1 M
b0 N
b100100 ~
#5050000
0!
0+
b111 1
1>
b111 O
0X
0Y
0\
1]
1^
0_
0`
1a
b10 b
b0 c
1e
#5100000
1!
b10 !!
b1000 "!
b1 &!
b100 (!
b1 )!
b1 *
1+
b1 L
b1 N
b100100 ~
#5150000
0!
0+
b0 1
1:
0>
b0 O
0X
1Y
0\
1]
1^
0_
0`
1a
b10 b
b0 c
0e
b10 z
b1000 {
#5200000
1!
b10 !!
b1000 "!
b100100 #
b101000 $
b1 &!
b1 )!
1+
b100100000011101111111111111110 .
b101000 H
b100100 n
b101000 o
b100100000011101111111111111110 p
b100100 ~
#5250000
0!
0+
b1 1
0:
1?
b1 O
1X
0Y
0\
1]
1^
0_
0`
1a
b10 b
b0 c
0e
