vivado1/MyCpu单/ALU/ALU.sim/sim_1/behav/xsim/ALU.vcd
$date
   Mon Dec  2 16:23:20 2024
$end
$version
  2019.2
$end
$timescale
  1ps
$end
$scope module ALU_sim $end
$var reg 32 ! ReadData1 [31:0] $end
$var reg 32 " ReadData2 [31:0] $end
$var reg 32 # Ext [31:0] $end
$var reg 5 $ Sa [4:0] $end
$var reg 3 % ALUop [2:0] $end
$var reg 1 & ALUSrcA $end
$var reg 1 ' ALUSrcB $end
$var wire 1 ( zero $end
$var wire 1 ) sign $end
$var wire 32 * Result [31:0] $end
$scope module uut $end
$var wire 32 + ReadData1 [31:0] $end
$var wire 32 , ReadData2 [31:0] $end
$var wire 32 - Ext [31:0] $end
$var wire 5 . Sa [4:0] $end
$var wire 3 / ALUop [2:0] $end
$var wire 1 0 ALUSrcA $end
$var wire 1 1 ALUSrcB $end
$var wire 1 ( zero $end
$var reg 32 2 Result [31:0] $end
$var wire 1 ) sign $end
$var wire 32 3 InA [31:0] $end
$var wire 32 4 InB [31:0] $end
$upscope $end
$upscope $end
$enddefinitions $end
#0
$dumpvars
b0 !
b0 "
b1 #
b1 $
b0 %
0&
0'
1(
1)
b0 *
b0 +
b0 ,
b1 -
b1 .
b0 /
00
01
b0 2
b0 3
b0 4
$end
#50000
b0 !
b0 "
b1 #
b1 $
b0 %
1&
0(
0)
b1 *
10
b1 2
b1 3
#100000
b0 !
b0 "
b1 #
b1 $
b0 %
0&
1'
00
11
b1 2
b0 3
b1 4
#150000
b0 !
b0 "
b1 #
b1 $
b0 %
1&
b10 *
10
b10 2
b1 3
#200000
b1 !
b10 "
b11 #
b100 $
b1 %
0&
0'
1)
b11111111111111111111111111111111 *
b1 +
b10 ,
b11 -
b100 .
b1 /
00
01
b11111111111111111111111111111111 2
b1 3
b10 4
#250000
b1 !
b10 "
b11 #
b100 $
b1 %
1&
0)
b10 *
10
b10 2
b100 3
#300000
b1 !
b10 "
b11 #
b100 $
b1 %
0&
1'
1)
b11111111111111111111111111111110 *
00
11
b11111111111111111111111111111110 2
b1 3
b11 4
#350000
b1 !
b10 "
b11 #
b100 $
b1 %
1&
0)
b1 *
10
b1 2
b100 3
#400000
b1 !
b10 "
b10 #
b100 $
b10 %
0&
0'
b100 *
b10 -
b10 /
00
01
b100 2
b1 3
b10 4
#450000
b1 !
b10 "
b10 #
b100 $
b10 %
1&
b100000 *
10
b100000 2
b100 3
#500000
b1 !
b10 "
b10 #
b100 $
b10 %
0&
1'
b100 *
00
11
b100 2
b1 3
b10 4
#550000
b1 !
b10 "
b10 #
b100 $
b10 %
1&
b100000 *
10
b100000 2
b100 3
#600000
b1 !
b10 "
b10 #
b100 $
b11 %
0&
0'
b11 *
b11 /
00
01
b11 2
b1 3
b10 4
#650000
b1 !
b10 "
b10 #
b100 $
b11 %
1&
b110 *
10
b110 2
b100 3
#700000
b1 !
b10 "
b10 #
b100 $
b11 %
0&
1'
b11 *
00
11
b11 2
b1 3
b10 4
#750000
b1 !
b10 "
b10 #
b100 $
b11 %
1&
b110 *
10
b110 2
b100 3
#800000
b1 !
b10 "
b10 #
b100 $
b100 %
0&
0'
1(
1)
b0 *
b100 /
00
01
b0 2
b1 3
b10 4
#850000
b1 !
b10 "
b10 #
b100 $
b100 %
1&
10
b0 2
b100 3
#900000
b1 !
b10 "
b10 #
b100 $
b100 %
0&
1'
00
11
b0 2
b1 3
b10 4
#950000
b1 !
b10 "
b10 #
b100 $
b100 %
1&
10
b0 2
b100 3
#1000000
b1 !
b10 "
b10 #
b1 $
b101 %
0&
0'
0(
0)
b1 *
b1 .
b101 /
00
01
b1 2
b1 3
b10 4
